Knowles, Christopher
OS CGS3767
Linux script results
Login at: Tue Nov  5 16:51:34 CST 2013
Knowles, Christopher
OS CGS3767
Linux script results
Login at: Tue Nov  5 16:53:25 CST 2013
Knowles, Christopher
OS CGS3767
Linux script results
Login at: Tue Nov  5 16:54:21 CST 2013
Knowles, Christopher
OS CGS3767
Linux script results
Login at: Tue Nov  5 16:57:37 CST 2013
Knowles, Christopher
OS CGS3767
Linux script results
Login at: Tue Nov  5 16:58:04 CST 2013
Knowles, Christopher
OS CGS3767
Linux script results
Login at: Tue Nov  5 16:58:26 CST 2013
Knowles, Christopher
OS CGS3767
Linux script results
Login at: Tue Nov  5 16:58:32 CST 2013
Knowles, Christopher
OS CGS3767
Linux script results
Login at: Tue Nov  5 16:58:56 CST 2013
Knowles, Christopher
OS CGS3767
Linux script results
Login at: Tue Nov  5 16:59:31 CST 2013
Knowles, Christopher
OS CGS3767
Linux script results
Login at: Tue Nov  5 17:00:22 CST 2013
Knowles, Christopher
OS CGS3767
Linux script results
Login at: Tue Nov  5 17:03:19 CST 2013
Knowles, Christopher
OS CGS3767
Linux script results
Login at: Tue Nov  5 17:03:56 CST 2013
Knowles, Christopher
OS CGS3767
Linux script results
Login at: Tue Nov  5 17:04:23 CST 2013
Knowles, Christopher
OS CGS3767
Linux script results
Login at: Tue Nov  5 17:04:31 CST 2013
Knowles, Christopher
OS CGS3767
Linux script results
Login at: Tue Nov  5 17:05:12 CST 2013
Knowles, Christopher
OS CGS3767
Linux script results
Login at: Tue Nov  5 17:07:01 CST 2013
Knowles, Christopher
OS CGS3767
Linux script results
Login at: Tue Nov  5 17:07:11 CST 2013
Knowles, Christopher
OS CGS3767
Linux script results
Login at: Tue Nov  5 17:07:38 CST 2013
Knowles, Christopher
OS CGS3767
Linux script results
Login at: Tue Nov  5 17:07:55 CST 2013
Knowles, Christopher
OS CGS3767
Linux script results
Login at: Tue Nov  5 17:08:12 CST 2013
Knowles, Christopher
OS CGS3767
Linux script results
Login at: Tue Nov  5 17:14:38 CST 2013
Knowles, Christopher
OS CGS3767
Linux script results
Login at: Tue Nov  5 17:15:37 CST 2013
Knowles, Christopher
OS CGS3767
Linux script results
Login at: Tue Nov  5 17:16:14 CST 2013
1
2
3
4
0
1
2
3
4
0
1
2
3
4
0
1
2
3
4
0
1
2
3
4
0
1
2
3
4
0
1
2
3
4
0
1
2
3
4
0
1
2
3
4
0
1
2
3
4
0
1
2
3
4
0
1
2
3
4
0
1
2
3
4
0
1
2
3
4
0
1
2
3
4
0
1
2
3
4
0
1
2
3
4
0
1
2
3
4
0
1
2
3
4
0
1
2
3
4
0
Knowles, Christopher
OS CGS3767
Linux script results
Login at: Tue Nov  5 17:18:05 CST 2013
Knowles, Christopher
OS CGS3767
Linux script results
Login at: Tue Nov  5 17:18:33 CST 2013
1
2
3
4
0
1
2
3
4
0
1
2
3
4
0
1
2
3
4
0
1
2
3
4
0
1
2
3
4
0
1
2
3
4
0
1
2
3
4
0
1
2
3
4
0
1
2
3
4
0
1
2
3
4
0
1
2
3
4
0
1
2
3
4
0
1
2
3
4
0
1
2
3
4
0
1
2
3
4
0
1
2
3
4
0
1
2
3
4
0
1
2
3
4
0
1
2
3
4
0
Knowles, Christopher
OS CGS3767
Linux script results
Login at: Tue Nov  5 17:19:50 CST 2013
1
2
3
4
0
1
2
3
4
0
1
2
3
4
0
1
2
3
4
0
1
2
3
4
0
1
2
3
4
0
1
2
3
4
0
1
2
3
4
0
1
2
3
4
0
1
2
3
4
0
1
2
3
4
0
1
2
3
4
0
1
2
3
4
0
1
2
3
4
0
1
2
3
4
0
1
2
3
4
0
1
2
3
4
0
1
2
3
4
0
1
2
3
4
0
1
2
3
4
0
2
Knowles, Christopher
OS CGS3767
Linux script results
Login at: Tue Nov  5 17:24:43 CST 2013
1
2
3
4
0
1
2
3
4
0
1
2
3
4
0
1
2
3
4
0
1
2
3
4
0
1
2
3
4
0
1
2
3
4
0
1
2
3
4
0
1
2
3
4
0
1
2
3
4
0
1
2
3
4
0
1
2
3
4
0
1
2
3
4
0
1
2
3
4
0
1
2
3
4
0
1
2
3
4
0
1
2
3
4
0
1
2
3
4
0
1
2
3
4
0
1
2
3
4
0
2
Knowles, Christopher
OS CGS3767
Linux script results
Login at: Tue Nov  5 17:25:09 CST 2013
1
2
3
4
0
1
2
3
4
0
1
2
3
4
0
1
2
3
4
0
1
2
3
4
0
1
2
3
4
0
1
2
3
4
0
1
2
3
4
0
1
2
3
4
0
1
2
3
4
0
1
2
3
4
0
1
2
3
4
0
1
2
3
4
0
1
2
3
4
0
1
2
3
4
0
1
2
3
4
0
1
2
3
4
0
1
2
3
4
0
1
2
3
4
0
1
2
3
4
0
2
Knowles, Christopher
OS CGS3767
Linux script results
Login at: Tue Nov  5 17:27:16 CST 2013
1
2
3
4
0
1
2
3
4
0
1
2
3
4
0
1
2
3
4
0
1
2
3
4
0
1
2
3
4
0
1
2
3
4
0
1
2
3
4
0
1
2
3
4
0
1
2
3
4
0
1
2
3
4
0
1
2
3
4
0
1
2
3
4
0
1
2
3
4
0
1
2
3
4
0
1
2
3
4
0
1
2
3
4
0
1
2
3
4
0
1
2
3
4
0
1
2
3
4
0
2
Knowles, Christopher
OS CGS3767
Linux script results
Login at: Tue Nov  5 17:29:23 CST 2013
Knowles, Christopher
OS CGS3767
Linux script results
Login at: Tue Nov  5 17:35:02 CST 2013
Knowles, Christopher
OS CGS3767
Linux script results
Login at: Tue Nov  5 17:36:43 CST 2013
1
2
3
4
0
1
2
3
4
0
1
2
3
4
0
1
2
3
4
0
1
2
3
4
0
1
2
3
4
0
1
2
3
4
0
1
2
3
4
0
1
2
3
4
0
1
2
3
4
0
1
2
3
4
0
1
2
3
4
0
1
2
3
4
0
1
2
3
4
0
1
2
3
4
0
1
2
3
4
0
1
2
3
4
0
1
2
3
4
0
1
2
3
4
0
1
2
3
4
0
2
Knowles, Christopher
OS CGS3767
Linux script results
Login at: Tue Nov  5 17:38:13 CST 2013
Knowles, Christopher
OS CGS3767
Linux script results
Login at: Tue Nov  5 17:38:39 CST 2013
Knowles, Christopher
OS CGS3767
Linux script results
Login at: Tue Nov  5 17:42:08 CST 2013
Knowles, Christopher
OS CGS3767
Linux script results
Login at: Tue Nov  5 17:42:31 CST 2013
1
2
3
4
0
1
2
3
4
0
1
2
3
4
0
1
2
3
4
0
1
2
3
4
0
1
2
3
4
0
1
2
3
4
0
1
2
3
4
0
1
2
3
4
0
1
2
3
4
0
1
2
3
4
0
1
2
3
4
0
1
2
3
4
0
1
2
3
4
0
1
2
3
4
0
1
2
3
4
0
1
2
3
4
0
1
2
3
4
0
1
2
3
4
0
1
2
3
4
0
2
Knowles, Christopher
OS CGS3767
Linux script results
Login at: Tue Nov  5 17:42:40 CST 2013
Knowles, Christopher
OS CGS3767
Linux script results
Login at: Tue Nov  5 17:43:01 CST 2013
Knowles, Christopher
OS CGS3767
Linux script results
Login at: Tue Nov  5 17:43:54 CST 2013
Knowles, Christopher
OS CGS3767
Linux script results
Login at: Tue Nov  5 17:44:02 CST 2013
Knowles, Christopher
OS CGS3767
Linux script results
Login at: Tue Nov  5 17:51:01 CST 2013
Knowles, Christopher
OS CGS3767
Linux script results
Login at: Tue Nov  5 17:52:17 CST 2013
Knowles, Christopher
OS CGS3767
Linux script results
Login at: Tue Nov  5 17:52:25 CST 2013
Knowles, Christopher
OS CGS3767
Linux script results
Login at: Tue Nov  5 17:52:39 CST 2013
Knowles, Christopher
OS CGS3767
Linux script results
Login at: Tue Nov  5 17:53:00 CST 2013
Knowles, Christopher
OS CGS3767
Linux script results
Login at: Tue Nov  5 18:36:51 CST 2013
Knowles, Christopher
OS CGS3767
Linux script results
Login at: Tue Nov  5 18:40:50 CST 2013
Knowles, Christopher
OS CGS3767
Linux script results
Login at: Tue Nov  5 18:41:57 CST 2013
